0	5.06521e-23 2.60992e-21 1.28381e-19 6.24965e-18 3.00443e-16 1.42216e-14 6.60701e-13 3.00062e-11 1.32507e-09 5.64422e-08 2.28866e-06 8.61962e-05 0.00285411 0.0700107 0.137952 0.000620707 0.137952 0.0700107 0.00285411 8.61962e-05 2.28866e-06 5.64422e-08 1.32507e-09 3.00062e-11 6.60701e-13 1.42216e-14 3.00443e-16 6.24965e-18 1.28381e-19 2.60991e-21 5.06534e-23 
0.5	6.82409e-23 3.74365e-21 2.11956e-19 9.65928e-18 3.21074e-16 2.32664e-14 2.44087e-12 1.37892e-10 3.90594e-09 6.6856e-08 2.03078e-06 9.04605e-05 0.00269958 0.0685678 0.138122 0.00350893 0.138122 0.0685678 0.00269958 9.04605e-05 2.03078e-06 6.6856e-08 3.90594e-09 1.37892e-10 2.44087e-12 2.32664e-14 3.21074e-16 9.65928e-18 2.11956e-19 3.74364e-21 6.82399e-23 
1.0	4.316e-18 1.871e-16 6.7079e-15 1.82874e-13 3.57503e-12 4.74813e-11 4.50212e-10 5.57204e-09 1.39832e-07 3.33135e-06 5.31621e-05 0.000496529 0.00361642 0.0685929 0.136273 0.00427464 0.136273 0.0685929 0.00361642 0.000496529 5.31621e-05 3.33135e-06 1.39832e-07 5.57204e-09 4.50212e-10 4.74813e-11 3.57503e-12 1.82874e-13 6.7079e-15 1.871e-16 4.316e-18 
1.5	3.13738e-14 4.38073e-13 5.27227e-12 4.91151e-11 3.63174e-10 2.53553e-09 2.60098e-08 3.98482e-07 5.58544e-06 5.41967e-05 0.000311791 0.000922546 0.00299186 0.0691991 0.136008 0.00325643 0.136008 0.0691991 0.00299186 0.000922546 0.000311791 5.41967e-05 5.58544e-06 3.98482e-07 2.60098e-08 2.53553e-09 3.63174e-10 4.91151e-11 5.27227e-12 4.38073e-13 3.13738e-14 
2.0	7.71471e-12 4.81268e-11 2.90278e-10 1.38208e-09 6.71559e-09 6.00507e-08 7.65349e-07 8.03211e-06 5.88765e-05 0.000275397 0.000722567 0.000882607 0.00260343 0.0681404 0.135405 0.00592092 0.135405 0.0681404 0.00260343 0.000882607 0.000722567 0.000275397 5.88765e-05 8.03211e-06 7.65349e-07 6.00507e-08 6.71559e-09 1.38208e-09 2.90278e-10 4.81268e-11 7.71471e-12 
2.5	3.04444e-10 9.06718e-10 3.38532e-09 1.42475e-08 1.1321e-07 1.13603e-06 9.53293e-06 5.85883e-05 0.000242601 0.000604717 0.00074012 0.000308626 0.00230446 0.0684799 0.135784 0.00487431 0.135784 0.0684799 0.00230446 0.000308626 0.00074012 0.000604717 0.000242601 5.85883e-05 9.53293e-06 1.13603e-06 1.1321e-07 1.42475e-08 3.38532e-09 9.06718e-10 3.04444e-10 
3.0	3.40588e-09 5.25029e-09 2.27913e-08 1.76907e-07 1.56149e-06 1.11517e-05 5.93601e-05 0.000220852 0.000521911 0.000660316 0.000297464 9.54436e-05 0.00250883 0.0690521 0.135568 0.00373485 0.135568 0.0690521 0.00250883 9.54436e-05 0.000297464 0.000660316 0.000521911 0.000220852 5.93601e-05 1.11517e-05 1.56149e-06 1.76907e-07 2.27913e-08 5.25029e-09 3.40588e-09 
3.5	1.52925e-08 3.17399e-08 2.60018e-07 1.96232e-06 1.21515e-05 5.76866e-05 0.0001979 0.000450825 0.000588242 0.000311477 2.07698e-05 0.000166554 0.00235074 0.0681962 0.135162 0.006535 0.135162 0.0681962 0.00235074 0.000166554 2.07698e-05 0.000311477 0.000588242 0.000450825 0.0001979 5.76866e-05 1.21515e-05 1.96232e-06 2.60018e-07 3.17399e-08 1.52925e-08 
4.0	6.76246e-08 3.43822e-07 2.37567e-06 1.30962e-05 5.65119e-05 0.000180591 0.000395515 0.000519429 0.000302732 2.60573e-05 9.36167e-05 0.000149124 0.0023596 0.0688367 0.135245 0.00496068 0.135245 0.0688367 0.0023596 0.000149124 9.36167e-05 2.60573e-05 0.000302732 0.000519429 0.000395515 0.000180591 5.65119e-05 1.30962e-05 2.37567e-06 3.43822e-07 6.76246e-08 
4.5	6.13571e-07 2.74121e-06 1.4023e-05 5.49034e-05 0.000163981 0.000345861 0.000456865 0.000289989 3.42497e-05 7.51811e-05 0.000113126 7.86897e-05 0.00240474 0.0690475 0.135366 0.00422128 0.135366 0.0690475 0.00240474 7.86897e-05 0.000113126 7.51811e-05 3.42497e-05 0.000289989 0.000456865 0.000345861 0.000163981 5.49034e-05 1.4023e-05 2.74121e-06 6.13571e-07 
5.0	4.47256e-06 1.38675e-05 5.40143e-05 0.000150356 0.000306865 0.00040339 0.000268724 3.85358e-05 5.99964e-05 0.000124655 1.85975e-05 8.87592e-05 0.00233325 0.0681244 0.135169 0.00664788 0.135169 0.0681244 0.00233325 8.87592e-05 1.85975e-05 0.000124655 5.99964e-05 3.85358e-05 0.000268724 0.00040339 0.000306865 0.000150356 5.40143e-05 1.38675e-05 4.47256e-06 
5.5	2.36821e-05 4.80272e-05 0.000143126 0.00027167 0.000355607 0.000246462 4.39071e-05 4.51724e-05 0.00012805 3.45935e-05 2.56198e-05 0.000112882 0.00239935 0.068957 0.135293 0.00447273 0.135293 0.068957 0.00239935 0.000112882 2.56198e-05 3.45935e-05 0.00012805 4.51724e-05 4.39071e-05 0.000246462 0.000355607 0.00027167 0.000143126 4.80272e-05 2.36821e-05 
6.0	8.75329e-05 0.000110743 0.000259825 0.000311772 0.00022689 4.46576e-05 3.37072e-05 0.000124741 4.86594e-05 1.49693e-05 4.72247e-05 6.13657e-05 0.00230588 0.0689249 0.13544 0.00451224 0.13544 0.0689249 0.00230588 6.13657e-05 4.72247e-05 1.49693e-05 4.86594e-05 0.000124741 3.37072e-05 4.46576e-05 0.00022689 0.000311772 0.000259825 0.000110743 8.75329e-05 
6.5	0.000241828 0.000166447 0.000319343 0.000192618 4.80698e-05 2.6345e-05 0.000113989 6.22741e-05 9.34043e-06 5.32593e-05 1.65666e-05 8.98654e-05 0.00241385 0.0680644 0.135203 0.00645322 0.135203 0.0680644 0.00241385 8.98654e-05 1.65666e-05 5.32593e-05 9.34043e-06 6.22741e-05 0.000113989 2.6345e-05 4.80698e-05 0.000192618 0.000319343 0.000166447 0.000241828 
7.0	0.000484752 0.000142205 0.000254129 3.47309e-05 1.48903e-05 0.000108203 7.04366e-05 5.60497e-06 5.28258e-05 2.35894e-05 9.15871e-06 7.18593e-05 0.00230247 0.0690183 0.135589 0.00399223 0.135589 0.0690183 0.00230247 7.18593e-05 9.15871e-06 2.35894e-05 5.28258e-05 5.60497e-06 7.04366e-05 0.000108203 1.48903e-05 3.47309e-05 0.000254129 0.000142205 0.000484752 
7.5	0.000709911 4.0952e-05 0.000116501 3.71961e-05 7.19473e-05 8.51667e-05 6.54559e-06 4.5007e-05 3.59735e-05 5.76942e-06 2.68823e-05 8.18712e-05 0.00240693 0.0687254 0.135381 0.00474181 0.135381 0.0687254 0.00240693 8.18712e-05 2.68823e-05 5.76942e-06 3.59735e-05 4.5007e-05 6.54559e-06 8.51667e-05 7.19473e-05 3.71961e-05 0.000116501 4.0952e-05 0.000709911 
8.0	0.000722303 3.50365e-05 2.99098e-05 0.000182569 4.62259e-05 1.29946e-05 4.50605e-05 4.26165e-05 3.3076e-06 2.73436e-05 8.3248e-06 6.63872e-05 0.00230046 0.0681352 0.135309 0.00635506 0.135309 0.0681352 0.00230046 6.63872e-05 8.3248e-06 2.73436e-05 3.3076e-06 4.26165e-05 4.50605e-05 1.29946e-05 4.62259e-05 0.000182569 2.99098e-05 3.50365e-05 0.000722303 
8.5	0.000452776 0.000263022 1.46939e-05 0.000263192 1.56782e-05 1.15728e-05 6.9391e-05 5.0778e-06 2.2159e-05 1.65898e-05 7.76759e-06 8.21782e-05 0.0023926 0.0691066 0.135495 0.00375047 0.135495 0.0691066 0.0023926 8.21782e-05 7.76759e-06 1.65898e-05 2.2159e-05 5.0778e-06 6.9391e-05 1.15728e-05 1.56782e-05 0.000263192 1.46939e-05 0.000263022 0.000452776 
9.0	0.000125341 0.000510383 3.62007e-05 0.000201181 0.000144755 1.66574e-05 2.88568e-05 3.24685e-05 1.92232e-05 2.1528e-06 1.66747e-05 6.56025e-05 0.00233985 0.0685863 0.135383 0.00517209 0.135383 0.0685863 0.00233985 6.56025e-05 1.66747e-05 2.1528e-06 1.92232e-05 3.24685e-05 2.88568e-05 1.66574e-05 0.000144755 0.000201181 3.62007e-05 0.000510383 0.000125341 
9.5	1.16723e-05 0.000435476 0.000119768 0.000109234 0.000314241 3.21489e-05 9.88415e-06 6.409e-05 4.84302e-06 1.12129e-05 8.01185e-06 7.36693e-05 0.00234846 0.0682392 0.13521 0.00619875 0.13521 0.0682392 0.00234846 7.36693e-05 8.01185e-06 1.12129e-05 4.84302e-06 6.409e-05 9.88415e-06 3.21489e-05 0.000314241 0.000109234 0.000119768 0.000435476 1.16723e-05 
10.0	0.000100191 0.000127803 0.000215403 6.67174e-05 0.00030557 0.000175309 2.17018e-05 4.69114e-05 4.01231e-05 6.45353e-06 4.20414e-06 7.92097e-05 0.00236641 0.0692045 0.135454 0.0036682 0.135454 0.0692045 0.00236641 7.92097e-05 4.20414e-06 6.45353e-06 4.01231e-05 4.69114e-05 2.17018e-05 0.000175309 0.00030557 6.67174e-05 0.000215403 0.000127803 0.000100191 
10.5	0.000141349 2.30471e-05 0.000168633 5.53614e-05 0.000165006 0.000338765 7.88554e-05 3.64473e-05 7.59567e-05 1.47769e-05 5.4758e-06 6.50854e-05 0.00233401 0.0684543 0.135296 0.00562239 0.135296 0.0684543 0.00233401 6.50854e-05 5.4758e-06 1.47769e-05 7.59567e-05 3.64473e-05 7.88554e-05 0.000338765 0.000165006 5.53614e-05 0.000168633 2.30471e-05 0.000141349 
11.0	5.67034e-05 0.000176839 3.11235e-05 4.64326e-05 5.493e-05 0.000297098 0.000221586 6.31211e-05 7.66027e-05 6.35313e-05 1.093e-05 8.03857e-05 0.00238848 0.0683406 0.135226 0.00586657 0.135226 0.0683406 0.00238848 8.03857e-05 1.093e-05 6.35313e-05 7.66027e-05 6.31211e-05 0.000221586 0.000297098 5.493e-05 4.64326e-05 3.11235e-05 0.000176839 5.67034e-05 
11.5	5.11547e-06 0.000209566 4.85671e-05 2.01213e-05 1.01085e-05 0.000119252 0.000307598 0.000136811 8.12907e-05 0.000104226 4.18729e-05 6.31861e-05 0.00232208 0.0692562 0.135519 0.00371022 0.135519 0.0692562 0.00232208 6.31861e-05 4.18729e-05 0.000104226 8.12907e-05 0.000136811 0.000307598 0.000119252 1.01085e-05 2.01213e-05 4.85671e-05 0.000209566 5.11547e-06 
12.0	4.28824e-05 5.6728e-05 0.000168658 1.12489e-05 8.97574e-07 1.65052e-05 0.000192619 0.00022585 0.000114138 0.000116601 0.000102397 0.000110505 0.00243979 0.0683516 0.135205 0.00611238 0.135205 0.0683516 0.00243979 0.000110505 0.000102397 0.000116601 0.000114138 0.00022585 0.000192619 1.65052e-05 8.97574e-07 1.12489e-05 0.000168658 5.6728e-05 4.28824e-05 
12.5	5.32768e-05 2.17587e-05 0.00012758 6.29811e-05 1.12653e-05 1.71322e-05 3.69521e-05 0.000203279 0.000159447 0.000124211 0.000141331 0.000143867 0.0023094 0.0686219 0.135338 0.00586887 0.135338 0.0686219 0.0023094 0.000143867 0.000141331 0.000124211 0.000159447 0.000203279 3.69521e-05 1.71322e-05 1.12653e-05 6.29811e-05 0.00012758 2.17587e-05 5.32768e-05 
13.0	1.29494e-05 0.000108782 1.45332e-05 8.96448e-05 2.84808e-05 3.62536e-05 2.06713e-05 6.65854e-05 0.000159382 0.000134066 0.000146572 0.000216307 0.00252112 0.069398 0.13547 0.00413727 0.13547 0.069398 0.00252112 0.000216307 0.000146572 0.000134066 0.000159382 6.65854e-05 2.06713e-05 3.62536e-05 2.84808e-05 8.96448e-05 1.45332e-05 0.000108782 1.29494e-05 
13.5	7.36609e-06 8.4454e-05 5.95676e-05 3.10316e-05 3.42752e-05 3.50186e-05 6.95808e-05 1.09317e-05 7.59092e-05 0.000121045 0.000128209 0.000253764 0.00240104 0.0684456 0.135253 0.00660694 0.135253 0.0684456 0.00240104 0.000253764 0.000128209 0.000121045 7.59092e-05 1.09317e-05 6.95808e-05 3.50186e-05 3.42752e-05 3.10316e-05 5.95676e-05 8.4454e-05 7.36609e-06 
14.0	2.80382e-05 9.01072e-06 0.000120363 1.55627e-05 1.68534e-05 1.78655e-05 6.39931e-05 7.37917e-05 9.63354e-06 6.63854e-05 8.84485e-05 0.00024272 0.00244428 0.0689651 0.135343 0.00501388 0.135343 0.0689651 0.00244428 0.00024272 8.84485e-05 6.63854e-05 9.63354e-06 7.37917e-05 6.39931e-05 1.78655e-05 1.68534e-05 1.55627e-05 0.000120363 9.01072e-06 2.80382e-05 
14.5	1.70452e-05 3.77546e-05 4.59497e-05 7.73342e-05 6.19019e-06 2.53781e-06 2.27298e-05 9.50511e-05 5.94905e-05 1.27208e-05 3.28462e-05 0.000223185 0.00242055 0.0693686 0.135514 0.00292123 0.135514 0.0693686 0.00242055 0.000223185 3.28462e-05 1.27208e-05 5.94905e-05 9.50511e-05 2.27298e-05 2.53781e-06 6.19019e-06 7.73342e-05 4.59497e-05 3.77546e-05 1.70452e-05 
15.0	1.7814e-06 6.53341e-05 1.32141e-05 6.5476e-05 3.37492e-05 5.16795e-06 2.57822e-06 3.7121e-05 0.000118954 2.53534e-05 1.21122e-05 0.000182225 0.00233937 0.0680398 0.13517 0.00462807 0.13517 0.0680398 0.00233937 0.000182225 1.21122e-05 2.53534e-05 0.000118954 3.7121e-05 2.57822e-06 5.16795e-06 3.37492e-05 6.5476e-05 1.32141e-05 6.53341e-05 1.7814e-06 
15.5	1.19898e-05 1.88796e-05 7.32676e-05 7.8183e-06 4.56269e-05 1.94479e-05 1.0449e-05 7.1526e-06 7.8762e-05 5.52157e-05 9.51284e-05 0.000159827 0.00247056 0.0687491 0.135291 0.00252734 0.135291 0.0687491 0.00247056 0.000159827 9.51284e-05 5.52157e-05 7.8762e-05 7.1526e-06 1.0449e-05 1.94479e-05 4.56269e-05 7.8183e-06 7.32676e-05 1.88796e-05 1.19898e-05 
16.0	1.38905e-05 1.07316e-05 5.65767e-05 3.92045e-05 1.25317e-05 2.34909e-05 1.96086e-05 3.39545e-05 1.4732e-05 2.66786e-05 0.000259738 0.000141873 0.0024755 0.0688037 0.135237 0.0022309 0.135237 0.0688037 0.0024755 0.000141873 0.000259738 2.66786e-05 1.4732e-05 3.39545e-05 1.96086e-05 2.34909e-05 1.25317e-05 3.92045e-05 5.65767e-05 1.07316e-05 1.38905e-05 
16.5	2.35462e-06 4.03412e-05 5.94267e-06 6.80362e-05 1.46838e-05 1.1057e-05 1.18389e-05 5.78062e-05 4.89172e-06 4.04256e-05 0.00035209 0.000181281 0.0028498 0.0679899 0.135045 0.00522727 0.135045 0.0679899 0.0028498 0.000181281 0.00035209 4.04256e-05 4.89172e-06 5.78062e-05 1.18389e-05 1.1057e-05 1.46838e-05 6.80362e-05 5.94267e-06 4.03412e-05 2.35462e-06 
17.0	4.71189e-06 2.19655e-05 3.65646e-05 1.86255e-05 5.25707e-05 6.92445e-06 3.77962e-06 5.1271e-05 1.76377e-05 0.000214942 0.000302029 0.000194086 0.00261053 0.069305 0.135399 0.00356601 0.135399 0.069305 0.00261053 0.000194086 0.000302029 0.000214942 1.76377e-05 5.1271e-05 3.77962e-06 6.92445e-06 5.25707e-05 1.86255e-05 3.65646e-05 2.19655e-05 4.71189e-06 
17.5	9.59937e-06 3.25672e-06 4.92738e-05 1.77051e-05 3.76852e-05 1.57118e-05 2.72231e-05 4.25642e-05 6.24277e-05 0.000413366 0.000202438 0.000318475 0.00267508 0.0693179 0.135352 0.0036261 0.135352 0.0693179 0.00267508 0.000318475 0.000202438 0.000413366 6.24277e-05 4.25642e-05 2.72231e-05 1.57118e-05 3.76852e-05 1.77051e-05 4.92738e-05 3.25672e-06 9.59937e-06 
18.0	2.96913e-06 2.21083e-05 8.76598e-06 6.44471e-05 6.38054e-06 7.79266e-06 8.60088e-05 6.54057e-05 0.000189448 0.000434926 0.00013983 0.000350618 0.00228493 0.0685516 0.135163 0.00531505 0.135163 0.0685516 0.00228493 0.000350618 0.00013983 0.000434926 0.000189448 6.54057e-05 8.60088e-05 7.79266e-06 6.38054e-06 6.44471e-05 8.76598e-06 2.21083e-05 2.96913e-06 
18.5	1.67468e-06 1.85667e-05 2.15624e-05 4.34769e-05 1.48549e-05 2.57447e-05 0.00014536 0.000117584 0.00034457 0.000294599 0.000121989 0.00037102 0.00249406 0.0692221 0.135212 0.00275169 0.135212 0.0692221 0.00249406 0.00037102 0.000121989 0.000294599 0.00034457 0.000117584 0.00014536 2.57447e-05 1.48549e-05 4.34769e-05 2.15624e-05 1.85667e-05 1.67468e-06 
19.0	5.60688e-06 2.8916e-06 5.45631e-05 7.23765e-06 1.19245e-05 0.000138551 0.000175668 0.000181645 0.000385006 0.00015625 7.61575e-05 0.000214169 0.00260452 0.0686702 0.135023 0.00400068 0.135023 0.0686702 0.00260452 0.000214169 7.61575e-05 0.00015625 0.000385006 0.000181645 0.000175668 0.000138551 1.19245e-05 7.23765e-06 5.45631e-05 2.8916e-06 5.60688e-06 
19.5	2.34258e-06 2.06714e-05 3.17416e-05 1.12048e-05 5.08068e-05 0.000262283 0.000170338 0.000244379 0.000272646 9.09512e-05 2.88768e-05 0.000174196 0.0029065 0.0680764 0.134919 0.0060314 0.134919 0.0680764 0.0029065 0.000174196 2.88768e-05 9.09512e-05 0.000272646 0.000244379 0.000170338 0.000262283 5.08068e-05 1.12048e-05 3.17416e-05 2.06714e-05 2.34258e-06 
20.0	3.72654e-06 3.50758e-05 7.60492e-06 1.68178e-05 0.000212741 0.000266297 0.000151809 0.000254821 0.000113969 5.46831e-05 2.10285e-05 0.000194754 0.00273151 0.0692888 0.135375 0.00360373 0.135375 0.0692888 0.00273151 0.000194754 2.10285e-05 5.46831e-05 0.000113969 0.000254821 0.000151809 0.000266297 0.000212741 1.68178e-05 7.60492e-06 3.50758e-05 3.72654e-06 
20.5	1.63433e-05 2.16067e-05 1.04029e-05 0.000100631 0.000342987 0.000176321 0.000140858 0.000176037 4.23848e-05 2.98107e-05 0.000134404 0.000234496 0.00256556 0.0687425 0.135228 0.00490991 0.135228 0.0687425 0.00256556 0.000234496 0.000134404 2.98107e-05 4.23848e-05 0.000176037 0.000140858 0.000176321 0.000342987 0.000100631 1.04029e-05 2.16067e-05 1.63433e-05 
21.0	2.84435e-05 1.31204e-05 4.18196e-05 0.000277253 0.000280421 9.94191e-05 0.000125182 5.24402e-05 6.66752e-05 3.01297e-05 0.000285517 0.000135929 0.00245415 0.0683238 0.134971 0.00567996 0.134971 0.0683238 0.00245415 0.000135929 0.000285517 3.01297e-05 6.66752e-05 5.24402e-05 0.000125182 9.94191e-05 0.000280421 0.000277253 4.18196e-05 1.31204e-05 2.84435e-05 
21.5	3.92947e-05 2.56101e-05 0.000164197 0.00034462 0.000132195 6.08515e-05 7.49916e-05 3.31355e-05 0.000113388 3.5995e-05 0.000331349 0.00013856 0.00253473 0.0691872 0.135232 0.00352826 0.135232 0.0691872 0.00253473 0.00013856 0.000331349 3.5995e-05 0.000113388 3.31355e-05 7.49916e-05 6.08515e-05 0.000132195 0.00034462 0.000164197 2.56101e-05 3.92947e-05 
22.0	6.92485e-05 7.38713e-05 0.000306591 0.000214238 4.53703e-05 4.15305e-05 1.47712e-05 0.000125508 0.000121138 1.4654e-05 0.000230311 0.000234193 0.0025754 0.0684699 0.134984 0.00587268 0.134984 0.0684699 0.0025754 0.000234193 0.000230311 1.4654e-05 0.000121138 0.000125508 1.47712e-05 4.15305e-05 4.53703e-05 0.000214238 0.000306591 7.38713e-05 6.92485e-05 
22.5	0.000154533 0.000149305 0.000304393 6.40061e-05 1.39167e-05 2.00729e-05 6.39378e-05 0.00017123 9.66251e-05 1.38961e-05 0.000126801 0.000247699 0.00253647 0.0684235 0.135308 0.00608626 0.135308 0.0684235 0.00253647 0.000247699 0.000126801 1.38961e-05 9.66251e-05 0.00017123 6.39378e-05 2.00729e-05 1.39167e-05 6.40061e-05 0.000304393 0.000149305 0.000154533 
23.0	0.000311033 0.000154724 0.000168902 1.00642e-05 8.08645e-06 2.0856e-05 0.000171205 9.21844e-05 6.62139e-05 0.000105868 8.4326e-05 0.000122682 0.0025532 0.0692195 0.135514 0.00360747 0.135514 0.0692195 0.0025532 0.000122682 8.4326e-05 0.000105868 6.62139e-05 9.21844e-05 0.000171205 2.0856e-05 8.08645e-06 1.00642e-05 0.000168902 0.000154724 0.000311033 
23.5	0.000487662 6.62528e-05 5.71039e-05 9.87392e-06 1.18125e-05 0.000102384 0.000152773 3.21654e-05 4.16203e-05 0.000246461 4.9361e-05 9.23369e-05 0.00242271 0.0682717 0.135392 0.00586519 0.135392 0.0682717 0.00242271 9.23369e-05 4.9361e-05 0.000246461 4.16203e-05 3.21654e-05 0.000152773 0.000102384 1.18125e-05 9.87392e-06 5.71039e-05 6.62528e-05 0.000487662 
24.0	0.000549622 1.301e-05 2.13313e-05 2.98527e-05 3.37966e-05 0.000163528 3.96639e-05 6.9325e-05 2.01075e-05 0.00029898 1.02289e-05 0.00020178 0.00246583 0.0685299 0.135196 0.00543813 0.135196 0.0685299 0.00246583 0.00020178 1.02289e-05 0.00029898 2.01075e-05 6.9325e-05 3.96639e-05 0.000163528 3.37966e-05 2.98527e-05 2.13313e-05 1.301e-05 0.000549622 
24.5	0.000439092 0.000103663 2.38773e-05 8.15729e-05 5.83121e-05 9.2143e-05 5.04604e-05 0.000115276 8.30914e-06 0.000206412 2.67438e-05 0.000238074 0.00250039 0.0691898 0.135692 0.00376597 0.135692 0.0691898 0.00250039 0.000238074 2.67438e-05 0.000206412 8.30914e-06 0.000115276 5.04604e-05 9.2143e-05 5.83121e-05 8.15729e-05 2.38773e-05 0.000103663 0.000439092 
25.0	0.000234093 0.000248919 4.52721e-05 0.000181495 2.95955e-05 1.5191e-05 0.000136893 0.000112832 3.55768e-05 7.10227e-05 5.8478e-05 0.000144181 0.00251309 0.0681177 0.135452 0.0061493 0.135452 0.0681177 0.00251309 0.000144181 5.8478e-05 7.10227e-05 3.55768e-05 0.000112832 0.000136893 1.5191e-05 2.95955e-05 0.000181495 4.52721e-05 0.000248919 0.000234093 
25.5	6.93203e-05 0.000314678 6.1728e-05 0.000265665 3.00513e-05 4.43914e-05 0.000113069 0.000109963 0.000108026 1.78018e-05 3.92667e-05 0.000103375 0.00239895 0.0685889 0.135695 0.0046322 0.135695 0.0685889 0.00239895 0.000103375 3.92667e-05 1.78018e-05 0.000108026 0.000109963 0.000113069 4.43914e-05 3.00513e-05 0.000265665 6.1728e-05 0.000314678 6.93203e-05 
26.0	1.53383e-05 0.000263263 5.98007e-05 0.000234146 0.000224346 5.03276e-05 2.99083e-05 0.000111641 0.000170421 5.33898e-05 1.26855e-05 0.000153428 0.00240782 0.0691216 0.135545 0.00341542 0.135545 0.0691216 0.00240782 0.000153428 1.26855e-05 5.33898e-05 0.000170421 0.000111641 2.99083e-05 5.03276e-05 0.000224346 0.000234146 5.98007e-05 0.000263263 1.53383e-05 
26.5	4.70196e-05 0.00013692 5.80697e-05 0.000116182 0.00044935 4.83522e-05 1.90705e-05 9.28468e-05 0.000153974 9.01072e-05 4.65412e-05 0.000192773 0.00246299 0.0681466 0.135354 0.006066 0.135354 0.0681466 0.00246299 0.000192773 4.65412e-05 9.01072e-05 0.000153974 9.28468e-05 1.90705e-05 4.83522e-05 0.00044935 0.000116182 5.80697e-05 0.00013692 4.70196e-05 
27.0	9.6709e-05 3.25506e-05 7.23006e-05 3.84853e-05 0.000397354 0.000212906 7.06501e-05 7.27088e-05 7.23357e-05 7.84185e-05 6.05207e-05 0.000134469 0.00247557 0.0687739 0.135448 0.00432725 0.135448 0.0687739 0.00247557 0.000134469 6.05207e-05 7.84185e-05 7.23357e-05 7.27088e-05 7.06501e-05 0.000212906 0.000397354 3.84853e-05 7.23006e-05 3.25506e-05 9.6709e-05 
27.5	9.35917e-05 2.97044e-05 7.46636e-05 1.5743e-05 0.000150894 0.000398713 0.000173339 7.68978e-05 3.52907e-05 3.77955e-05 3.17723e-05 0.000135458 0.00235424 0.0689541 0.135614 0.00366149 0.135614 0.0689541 0.00235424 0.000135458 3.17723e-05 3.77955e-05 3.52907e-05 7.68978e-05 0.000173339 0.000398713 0.000150894 1.5743e-05 7.46636e-05 2.97044e-05 9.35917e-05 
28.0	4.41276e-05 0.00013265 3.54248e-05 3.83099e-06 2.85518e-05 0.000330933 0.000312414 0.000110346 0.000124211 1.03627e-05 1.54725e-05 0.000140943 0.00235308 0.0681646 0.135172 0.00602148 0.135172 0.0681646 0.00235308 0.000140943 1.54725e-05 1.03627e-05 0.000124211 0.000110346 0.000312414 0.000330933 2.85518e-05 3.83099e-06 3.54248e-05 0.00013265 4.41276e-05 
28.5	1.15217e-05 0.000184346 1.06246e-05 1.19404e-05 4.35866e-05 0.000114735 0.000353112 0.000149244 0.000250365 5.60547e-05 3.62487e-05 0.000197629 0.00252618 0.0690493 0.135198 0.00397993 0.135198 0.0690493 0.00252618 0.000197629 3.62487e-05 5.60547e-05 0.000250365 0.000149244 0.000353112 0.000114735 4.35866e-05 1.19404e-05 1.06246e-05 0.000184346 1.15217e-05 
29.0	3.90932e-05 0.000102106 8.86575e-05 1.62623e-05 4.65926e-05 3.99044e-05 0.000227391 0.000154897 0.000270197 0.000179343 2.65375e-05 0.000148543 0.00228458 0.0689862 0.13523 0.00444479 0.13523 0.0689862 0.00228458 0.000148543 2.65375e-05 0.000179343 0.000270197 0.000154897 0.000227391 3.99044e-05 4.65926e-05 1.62623e-05 8.86575e-05 0.000102106 3.90932e-05 
29.5	6.58497e-05 1.86589e-05 0.000159222 8.26883e-06 2.33343e-05 0.000111867 6.73758e-05 0.000119554 0.000157008 0.000277114 7.50764e-05 0.000101841 0.00246302 0.0682587 0.134879 0.00641446 0.134879 0.0682587 0.00246302 0.000101841 7.50764e-05 0.000277114 0.000157008 0.000119554 6.73758e-05 0.000111867 2.33343e-05 8.26883e-06 0.000159222 1.86589e-05 6.58497e-05 
30.0	4.07903e-05 8.19221e-05 8.97387e-05 4.16709e-05 1.07985e-05 0.000166605 8.47607e-06 9.07466e-05 7.23336e-05 0.000234989 0.000241915 0.000144651 0.0023203 0.0691857 0.135356 0.00372891 0.135356 0.0691857 0.0023203 0.000144651 0.000241915 0.000234989 7.23336e-05 9.07466e-05 8.47607e-06 0.000166605 1.07985e-05 4.16709e-05 8.97387e-05 8.19221e-05 4.07903e-05 
30.5	9.45121e-06 0.000151629 1.31154e-05 7.63837e-05 1.23786e-05 0.000140055 3.57476e-05 9.12559e-05 7.25076e-05 0.000110341 0.000328469 0.000332303 0.00242248 0.0687931 0.13525 0.0043275 0.13525 0.0687931 0.00242248 0.000332303 0.000328469 0.000110341 7.25076e-05 9.12559e-05 3.57476e-05 0.000140055 1.23786e-05 7.63837e-05 1.31154e-05 0.000151629 9.45121e-06 
31.0	2.71329e-05 8.50566e-05 8.52473e-05 4.84627e-05 3.27642e-05 7.10205e-05 6.71397e-05 7.35737e-05 7.82829e-05 3.04456e-05 0.00019192 0.000443992 0.0024475 0.0680495 0.135312 0.00540799 0.135312 0.0680495 0.0024475 0.000443992 0.00019192 3.04456e-05 7.82829e-05 7.35737e-05 6.71397e-05 7.10205e-05 3.27642e-05 4.84627e-05 8.52473e-05 8.50566e-05 2.71329e-05 
31.5	4.81677e-05 1.49068e-05 0.000138967 4.3874e-05 5.76676e-05 1.7042e-05 7.02112e-05 3.98062e-05 3.51465e-05 7.63586e-06 3.18672e-05 0.000446523 0.0024814 0.0689796 0.135979 0.00241995 0.135979 0.0689796 0.0024814 0.000446523 3.18672e-05 7.63586e-06 3.51465e-05 3.98062e-05 7.02112e-05 1.7042e-05 5.76676e-05 4.3874e-05 0.000138967 1.49068e-05 4.81677e-05 
32.0	2.71839e-05 6.34843e-05 5.40926e-05 0.000106672 7.6291e-05 4.64749e-06 5.18095e-05 4.86383e-05 2.24997e-05 1.03761e-05 4.16697e-05 0.000339814 0.00259019 0.068376 0.136041 0.00378933 0.136041 0.068376 0.00259019 0.000339814 4.16697e-05 1.03761e-05 2.24997e-05 4.86383e-05 5.18095e-05 4.64749e-06 7.6291e-05 0.000106672 5.40926e-05 6.34843e-05 2.71839e-05 
32.5	5.87412e-06 9.70995e-05 2.23615e-05 0.000107374 8.8623e-05 2.90788e-05 3.95122e-05 9.34321e-05 8.68779e-05 1.31851e-05 0.000112046 0.000183952 0.0023795 0.0684294 0.135866 0.00500466 0.135866 0.0684294 0.0023795 0.000183952 0.000112046 1.31851e-05 8.68779e-05 9.34321e-05 3.95122e-05 2.90788e-05 8.8623e-05 0.000107374 2.23615e-05 9.70995e-05 5.87412e-06 
33.0	1.34891e-05 3.71927e-05 0.000120583 3.91512e-05 6.35811e-05 5.59572e-05 3.35667e-05 8.4939e-05 0.000163926 9.10291e-06 0.000102123 9.86705e-05 0.00247833 0.0696776 0.135534 0.00347483 0.135534 0.0696776 0.00247833 9.86705e-05 0.000102123 9.10291e-06 0.000163926 8.4939e-05 3.35667e-05 5.59572e-05 6.35811e-05 3.91512e-05 0.000120583 3.71927e-05 1.34891e-05 
33.5	1.47687e-05 1.60436e-05 0.00015726 3.52053e-05 9.86137e-06 5.78248e-05 2.18537e-05 7.19617e-05 0.000149606 2.70719e-06 9.95317e-05 0.000100971 0.00242707 0.0688988 0.13506 0.00631721 0.13506 0.0688988 0.00242707 0.000100971 9.95317e-05 2.70719e-06 0.000149606 7.19617e-05 2.18537e-05 5.78248e-05 9.86137e-06 3.52053e-05 0.00015726 1.60436e-05 1.47687e-05 
34.0	4.49863e-06 6.5502e-05 8.12005e-05 7.29611e-05 2.72473e-05 3.28718e-05 1.40795e-05 0.000160059 6.51157e-05 8.81672e-06 0.000176361 0.000179554 0.00272394 0.0688334 0.134357 0.00648168 0.134357 0.0688334 0.00272394 0.000179554 0.000176361 8.81672e-06 6.51157e-05 0.000160059 1.40795e-05 3.28718e-05 2.72473e-05 7.29611e-05 8.12005e-05 6.5502e-05 4.49863e-06 
34.5	2.214e-05 7.12474e-05 3.86648e-05 4.99577e-05 0.000119724 9.92271e-06 6.69404e-05 0.000257576 1.63634e-05 2.95804e-05 0.000244855 0.000146019 0.00256402 0.0694856 0.134616 0.00388049 0.134616 0.0694856 0.00256402 0.000146019 0.000244855 2.95804e-05 1.63634e-05 0.000257576 6.69404e-05 9.92271e-06 0.000119724 4.99577e-05 3.86648e-05 7.12474e-05 2.214e-05 
35.0	6.22524e-05 2.73385e-05 3.7398e-05 2.78721e-05 0.000157659 5.84243e-06 0.000167487 0.000187917 1.03171e-05 0.00012599 0.000217796 0.000133175 0.00255955 0.0685803 0.134218 0.00570953 0.134218 0.0685803 0.00255955 0.000133175 0.000217796 0.00012599 1.03171e-05 0.000187917 0.000167487 5.84243e-06 0.000157659 2.78721e-05 3.7398e-05 2.73385e-05 6.22524e-05 
35.5	7.82966e-05 2.49213e-05 1.48172e-05 8.35809e-05 9.99448e-05 1.20107e-05 0.000219552 5.3878e-05 1.09085e-05 0.000290116 0.000122998 0.000122713 0.00234453 0.0687754 0.134844 0.00494605 0.134844 0.0687754 0.00234453 0.000122713 0.000122998 0.000290116 1.09085e-05 5.3878e-05 0.000219552 1.20107e-05 9.99448e-05 8.35809e-05 1.48172e-05 2.49213e-05 7.82966e-05 
36.0	6.47894e-05 4.39275e-05 4.85619e-05 0.000138153 3.72651e-05 4.69986e-05 0.000189582 1.19315e-05 9.80863e-05 0.000306321 5.6235e-05 0.000125835 0.00242048 0.0694438 0.13537 0.00352493 0.13537 0.0694438 0.00242048 0.000125835 5.6235e-05 0.000306321 9.80863e-05 1.19315e-05 0.000189582 4.69986e-05 3.72651e-05 0.000138153 4.85619e-05 4.39275e-05 6.47894e-05 
36.5	5.1127e-05 3.18827e-05 0.000177302 0.000118137 2.56002e-05 0.000102293 0.000146851 3.91335e-05 0.00025566 0.000113413 3.78687e-05 7.22329e-05 0.00238596 0.0684156 0.135374 0.00644791 0.135374 0.0684156 0.00238596 7.22329e-05 3.78687e-05 0.000113413 0.00025566 3.91335e-05 0.000146851 0.000102293 2.56002e-05 0.000118137 0.000177302 3.18827e-05 5.1127e-05 
37.0	5.59838e-05 2.34812e-05 0.000271752 6.45979e-05 5.32585e-05 0.000116571 9.27886e-05 6.49492e-05 0.000256492 8.89893e-06 4.06332e-05 8.16426e-05 0.00256079 0.0687788 0.135536 0.00522188 0.135536 0.0687788 0.00256079 8.16426e-05 4.06332e-05 8.89893e-06 0.000256492 6.49492e-05 9.27886e-05 0.000116571 5.32585e-05 6.45979e-05 0.000271752 2.34812e-05 5.59838e-05 
37.5	9.92458e-05 4.74331e-05 0.000231244 2.22563e-05 0.000115 7.13665e-05 3.79479e-05 8.24108e-05 8.4134e-05 0.000125477 4.64516e-05 8.53225e-05 0.00260057 0.0691265 0.135554 0.00383342 0.135554 0.0691265 0.00260057 8.53225e-05 4.64516e-05 0.000125477 8.4134e-05 8.24108e-05 3.79479e-05 7.13665e-05 0.000115 2.22563e-05 0.000231244 4.74331e-05 9.92458e-05 
38.0	0.000187467 5.39988e-05 0.000143424 2.81627e-06 0.000184762 2.48995e-05 4.89951e-05 5.55483e-05 1.41581e-05 0.000186672 4.4818e-05 0.000123848 0.00251116 0.0678992 0.135261 0.00590255 0.135261 0.0678992 0.00251116 0.000123848 4.4818e-05 0.000186672 1.41581e-05 5.55483e-05 4.89951e-05 2.48995e-05 0.000184762 2.81627e-06 0.000143424 5.39988e-05 0.000187467 
38.5	0.000276245 2.45201e-05 9.62182e-05 1.81438e-05 0.000201368 2.71228e-05 9.06957e-05 2.65909e-05 9.31657e-05 8.23899e-05 2.5249e-05 0.000279016 0.00241288 0.0687231 0.135441 0.00384602 0.135441 0.0687231 0.00241288 0.000279016 2.5249e-05 8.23899e-05 9.31657e-05 2.65909e-05 9.06957e-05 2.71228e-05 0.000201368 1.81438e-05 9.62182e-05 2.45201e-05 0.000276245 
39.0	0.000303566 7.80476e-06 9.30081e-05 3.88233e-05 0.000137961 4.45121e-05 6.38884e-05 9.53642e-05 9.77187e-05 1.5288e-05 1.53872e-05 0.000413719 0.00237638 0.0688374 0.135513 0.00359008 0.135513 0.0688374 0.00237638 0.000413719 1.53872e-05 1.5288e-05 9.77187e-05 9.53642e-05 6.38884e-05 4.45121e-05 0.000137961 3.88233e-05 9.30081e-05 7.80476e-06 0.000303566 
39.5	0.000249598 2.39387e-05 0.000124585 2.28218e-05 5.19829e-05 6.09037e-05 9.74104e-06 0.00021016 2.17805e-05 4.39709e-05 2.58214e-05 0.000359131 0.00247551 0.0679758 0.135223 0.00598255 0.135223 0.0679758 0.00247551 0.000359131 2.58214e-05 4.39709e-05 2.17805e-05 0.00021016 9.74104e-06 6.09037e-05 5.19829e-05 2.28218e-05 0.000124585 2.39387e-05 0.000249598 
40.0	0.000168156 3.74643e-05 0.000174211 6.20716e-06 1.00054e-05 0.000109188 2.24752e-05 0.000215583 1.75917e-05 6.02017e-05 3.25734e-05 0.00023826 0.00249748 0.068816 0.135581 0.00344103 0.135581 0.068816 0.00249748 0.00023826 3.25734e-05 6.02017e-05 1.75917e-05 0.000215583 2.24752e-05 0.000109188 1.00054e-05 6.20716e-06 0.000174211 3.74643e-05 0.000168156 
40.5	0.000102634 3.24091e-05 0.000176761 7.87704e-05 7.90168e-06 0.000167152 4.5411e-05 0.000119684 6.93342e-05 6.18183e-05 0.000127846 0.000216219 0.00246818 0.0686219 0.135544 0.00334895 0.135544 0.0686219 0.00246818 0.000216219 0.000127846 6.18183e-05 6.93342e-05 0.000119684 4.5411e-05 0.000167152 7.90168e-06 7.87704e-05 0.000176761 3.24091e-05 0.000102634 
41.0	5.70335e-05 2.30729e-05 0.000100581 0.000222134 5.89699e-06 0.000162448 2.22791e-05 3.7406e-05 9.22052e-05 5.59385e-05 0.000324859 0.000149992 0.00253367 0.0678001 0.135335 0.00517973 0.135335 0.0678001 0.00253367 0.000149992 0.000324859 5.59385e-05 9.22052e-05 3.7406e-05 2.22791e-05 0.000162448 5.89699e-06 0.000222134 0.000100581 2.30729e-05 5.70335e-05 
41.5	2.44396e-05 1.81033e-05 2.40956e-05 0.000290069 4.42964e-06 0.00011753 2.20562e-05 1.32617e-05 8.64035e-05 2.60823e-05 0.000393598 0.000162577 0.00271802 0.0688815 0.135466 0.00297351 0.135466 0.0688815 0.00271802 0.000162577 0.000393598 2.60823e-05 8.64035e-05 1.32617e-05 2.20562e-05 0.00011753 4.42964e-06 0.000290069 2.40956e-05 1.81033e-05 2.44396e-05 
42.0	2.87204e-06 3.84124e-05 2.88808e-05 0.000205437 3.12733e-05 9.9108e-05 7.80447e-05 1.10474e-05 8.2999e-05 4.61902e-05 0.000206327 0.000358665 0.00258922 0.0686214 0.13524 0.00442079 0.13524 0.0686214 0.00258922 0.000358665 0.000206327 4.61902e-05 8.2999e-05 1.10474e-05 7.80447e-05 9.9108e-05 3.12733e-05 0.000205437 2.88808e-05 3.84124e-05 2.87204e-06 
